/* XPM */
static char *shade_xpm[] = {
"24 26 4 1",
" 	c None",
"1	c #1A1E24",
"2	c #E6E6E6",
"3	c #FDFF00",
"333333333333333333333333",
"111111111111111111111111",
"111111111111111111111111",
"111111111111111111111111",
"111111111111111111111111",
"111111111111111111111111",
"111111111111111111111111",
"111111111111111111111111",
"111111111111111111111111",
"111111111111111111111111",
"111111111111111111111111",
"111111111113311111111111",
"111111111133331111111111",
"111111111333333111111111",
"111111113331133311111111",
"111111133311113331111111",
"111111111111111111111111",
"111111111111111111111111",
"111111111111111111111111",
"111111111111111111111111",
"111111111111111111111111",
"111111111111111111111111",
"111111111111111111111111",
"111111111111111111111111",
"111111111111111111111111",
"111111111111111111111111"
};
