/* XPM */
static char *shade_xpm[] = {
"24 26 4 1",
" 	c None",
"1	c #1A1E24",
"2	c #E6E6E6",
"3	c #FDFF00",
"333333333333333333333333",
"111111111111111111111111",
"111111111111111111111111",
"111111111111111111111111",
"111111111111111111111111",
"111111111111111111111111",
"111111111111111111111111",
"111111111111111111111111",
"111111111111111111111111",
"111111111111111111111111",
"111111111111111111111111",
"111111111112211111111111",
"111111111122221111111111",
"111111111222222111111111",
"111111112221122211111111",
"111111122211112221111111",
"111111111111111111111111",
"111111111111111111111111",
"111111111111111111111111",
"111111111111111111111111",
"111111111111111111111111",
"111111111111111111111111",
"111111111111111111111111",
"111111111111111111111111",
"111111111111111111111111",
"111111111111111111111111"
};
