/* XPM */
static char * title_1_active_xpm[] = {
"2 26 3 1",
" 	c None",
".	c #fdff00",
"+	c #1a1e24",
"..",
"++",
"++",
"++",
"++",
"++",
"++",
"++",
"++",
"++",
"++",
"++",
"++",
"++",
"++",
"++",
"++",
"++",
"++",
"++",
"++",
"++",
"++",
"++",
"++",
"++"};
